…
此題使用的是 R 的內建資料 `ToothGrowth`，請使用 `?ToothGrowth` 閱讀此資料集的說明，並使用上課講到的指令 (e.g. `dim()`, `glimpse()`, `View()`, ...) 幫助自己熟悉這份資料。


### Subsetting I (20 分)

請從 `df` 中 (1) 篩選出 `supp` 變項為 `VC` 的所有觀察值，並 (2) 只保留 `len` 與 `supp` 這兩個變項。

```{r}
# Write your code here

# should print out:
#> # A tibble: 30 x 2
#>      len supp 
#>    <dbl> <fct>
#>  1   4.2 VC   
#>  2  11.5 VC   
#>  3   7.3 VC   
#>  4   5.8 VC   
#>  5   6.4 VC   
#>  6  10   VC   
#>  7  11.2 VC   
#>  8  11.2 VC   
#>  9   5.2 VC   
#> 10   7   VC   
#> # … with 20 more rows
```


### Subsetting II (20 分)

請從 `df` 中篩選出 (1) `supp` 變項為 `VC` 且 (2) `len` 小於 25 的所有觀察值。

```{r}
# Write your code here

# should print out:
#> # A tibble: 24 x 3
#>      len supp   dose
#>    <dbl> <fct> <dbl>
#>  1   4.2 VC      0.5
#>  2  11.5 VC      0.5
#>  3   7.3 VC      0.5
#>  4   5.8 VC      0.5
#>  5   6.4 VC      0.5
#>  6  10   VC      0.5
#>  7  11.2 VC      0.5
#>  8  11.2 VC      0.5
#>  9   5.2 VC      0.5
#> 10   7   VC      0.5
#> # … with 14 more rows
```
…
進階選答題 (共 20 分)
==========================

1. 作業資料夾裡面有份 `week3Rclass.csv`，請將此份資料讀進 R 成為一個 data.frame，存入變數 `cute_cute`。(可以使用 R 內建函數或 `readr` 套件)
   
```{r}
# Write your code here

# Do not modify the code below
cute_cute
# Should print out
#> # A tibble: 85 x 6
#>    nickname   gender grade q_self q_teacher   GPA
#>    <chr>       <dbl> <dbl>  <dbl>     <dbl> <dbl>
#>  1 iakuhs          2     5     60        60  4.2 
#>  2 ToMmyDong       1     1    100       100  5   
#>  3 s               2     4     60        90  4   
#>  4 Jhang           1     4     70        85  3.7 
#>  5 Ryan            2     1     80        90  4.05
#>  6 Ycyc            1     4    100        90  4.3 
#>  7 Liuba           1     5     85        90  3.13
#>  8 guest001        2     1     80        80  3.2 
#>  9 WhaDaFuq        1     1     85        80  2.99
#> 10 irenYujing      2     2     90        90  3.86
#> # … with 75 more rows
```
…
3. (不可以使用套件，e.g. `dplyr`、`data.table`)
請在 `cute_cute` 這個 data frame 裡新增一個 column `favorite_word` (不可以使用套件，e.g. `dplyr`、`data.table`)。在 `favorite_word` 中：
  - 若 `q_self` 大於等於 70，`favorite_word` 的值為 `"根本可愛動物區"`
  - 若 `q_self` 小於 70，`favorite_word` 的值為 `"一代一代"`

  
```{r}
# Write your code here

# Do not modify the code below
cute_cute
# Should print out
#> # A tibble: 85 x 7
#>    nickname   gender grade q_self q_teacher   GPA favorite_word 
#>    <chr>       <dbl> <dbl>  <dbl>     <dbl> <dbl> <chr>         
#>  1 iakuhs          2     5     60        60  4.2  一代一代      
#>  2 ToMmyDong       1     1    100       100  5    根本可愛動物區
#>  3 s               2     4     60        90  4    一代一代      
#>  4 Jhang           1     4     70        85  3.7  根本可愛動物區
#>  5 Ryan            2     1     80        90  4.05 根本可愛動物區
#>  6 Ycyc            1     4    100        90  4.3  根本可愛動物區
#>  7 Liuba           1     5     85        90  3.13 根本可愛動物區
#>  8 guest001        2     1     80        80  3.2  根本可愛動物區
#>  9 WhaDaFuq        1     1     85        80  2.99 根本可愛動物區
#> 10 irenYujing      2     2     90        90  3.86 根本可愛動物區
#> # … with 75 more rows
```
